{
  "$schema": "https://docs.renovatebot.com/renovate-schema.json",
  "extends": [
    "config:base",
    ":automergeMinor",
    "schedule:nonOfficeHours",
    "local>gitlab-instance-administrators-71e34e68/renovate-bot"
  ]
}
